C Assignment: Project Proposal | Time Series and Forecasting
…
# Close connection -- this is good practice
dbDisconnect(db)
dbUnloadDriver(db_driver)

C.3 Exploratory data analysis

Provide a brief example of the data, showing how they are structured.

print(esales)

## # A tibble: 233 x 4
##     value date        year month
##     <dbl> <date>     <int> <int>
##  1  8282. 2020-05-01  2020     5
##  2  7839. 2020-04-01  2020     4
##  3  8889. 2020-03-01  2020     3
##  4  9368. 2020-02-01  2020     2
##  5  9209. 2020-01-01  2020     1
##  6 10038. 2019-12-01  2019    12
##  7  9291. 2019-11-01  2019    11
##  8  8757. 2019-10-01  2019    10
##  9  9874. 2019-09-01  2019     9
## 10 10912. 2019-08-01  2019     8
## # … with 223 more rows
…
# install.packages("tsibble")
library(tsibble) # Reference: https://tsibble.tidyverts.org/articles/intro-tsibble.html

esales %>% as_tsibble(index = date) -> esales_tbl_ts

print(esales_tbl_ts)

## # A tsibble: 233 x 4 [1D]
##    value date        year month
##    <dbl> <date>     <int> <int>
##  1 9576. 2001-01-01  2001     1
##  2 7820. 2001-02-01  2001     2
##  3 8070. 2001-03-01  2001     3
##  4 7153. 2001-04-01  2001     4
##  5 7224. 2001-05-01  2001     5
##  6 8264. 2001-06-01  2001     6
##  7 8896. 2001-07-01  2001     7
##  8 9404. 2001-08-01  2001     8
##  9 7753. 2001-09-01  2001     9
## 10 7272. 2001-10-01  2001    10
## # … with 223 more rows
…
# install.packages('tsibbledata')
library(tsibbledata)

aus_production

## # A tsibble: 218 x 7 [1Q]
##    Quarter  Beer Tobacco Bricks Cement Electricity   Gas
##      <qtr> <dbl>   <dbl>  <dbl>  <dbl>       <dbl> <dbl>
##  1 1956 Q1   284    5225    189    465        3923     5
##  2 1956 Q2   213    5178    204    532        4436     6
##  3 1956 Q3   227    5297    208    561        4806     7
##  4 1956 Q4   308    5681    197    570        4418     6
##  5 1957 Q1   262    5577    187    529        4339     5
##  6 1957 Q2   228    5651    214    604        4811     7
##  7 1957 Q3   236    5317    227    603        5259     7
##  8 1957 Q4   320    6152    222    582        4735     6
##  9 1958 Q1   272    5758    199    554        4608     5
## 10 1958 Q2   233    5641    229    620        5196     7
## # … with 208 more rows
…
