Chapter 22 Evaluating model residuals | Time Series and Forecasting: A Project-based Approach with R
…
22.1 Model residuals vs. forecast errors

Model residuals:

Your data: \(y_1, y_2, \ldots, y_T\)

Fitted values: \(\hat{y}_1, \hat{y}_2, \ldots, \hat{y}_T\)

Model residuals: \(e_t = y_t - \hat{y}_t\)

Forecast errors:

augment(fit)

## # A tsibble: 15,150 x 7 [1Y]
## # Key:       Country, .model [263]
##    Country     .model       Year         GDP      .fitted      .resid     .innov
##    <fct>       <chr>       <dbl>       <dbl>        <dbl>       <dbl>      <dbl>
##  1 Afghanistan trend_model  1960  537777811. -1587934559. 2125712370.     2.13e9
##  2 Afghanistan trend_model  1961  548888896. -1281158073. 1830046968.     1.83e9
##  3 Afghanistan trend_model  1962  546666678.  -974381586. 1521048264.     1.52e9
##  4 Afghanistan trend_model  1963  751111191.  -667605100. 1418716291.     1.42e9
##  5 Afghanistan trend_model  1964  800000044.  -360828613. 1160828658.     1.16e9
##  6 Afghanistan trend_model  1965 1006666638.   -54052127. 1060718765.     1.06e9
##  7 Afghanistan trend_model  1966 1399999967.   252724359. 1147275607.     1.15e9
##  8 Afghanistan trend_model  1967 1673333418.   559500846. 1113832572.     1.11e9
##  9 Afghanistan trend_model  1968 1373333367.   866277332.  507056034.     5.07e8
## 10 Afghanistan trend_model  1969 1408888922.  1173053819.  235835103.     2.36e8
## # … with 15,140 more rows
…
22.3 Example: GDP, several models, several countries

library(tsibbledata) # Data sets package

nordic <- c("Sweden", "Denmark", "Norway", "Finland")

(global_economy %>% filter(Country %in% nordic) -> nordic_economy)

## # A tsibble: 232 x 9 [1Y]
## # Key:       Country [4]
##    Country Code   Year          GDP Growth   CPI Imports Exports Population
##    <fct>   <fct> <dbl>        <dbl>  <dbl> <dbl>   <dbl>   <dbl>      <dbl>
##  1 Denmark DNK    1960  6248946880. NA      8.25    34.3    32.3    4579603
##  2 Denmark DNK    1961  6933842099.  6.38   8.53    32.3    30.0    4611687
##  3 Denmark DNK    1962  7812968114.  5.67   9.16    32.5    28.6    4647727
##  4 Denmark DNK    1963  8316692386.  0.637  9.72    30.8    30.4    4684483
##  5 Denmark DNK    1964  9506678763.  9.27  10.0     32.6    29.9    4722072
##  6 Denmark DNK    1965 10678897387.  4.56  10.6     31.5    29.3    4759012
##  7 Denmark DNK    1966 11721248101.  2.74  11.3     30.8    28.6    4797381
##  8 Denmark DNK    1967 12788479692.  3.42  12.2     30.0    27.3    4835354
##  9 Denmark DNK    1968 13196541952   3.97  13.2     29.7    27.7    4864883
## 10 Denmark DNK    1969 15009384585.  6.32  13.7     30.4    27.6    4891860
## # … with 222 more rows
…
Denmark: ARMA(1,1)

Finland: MA(2)

Norway: MA(1)

Sweden: MA(2)

fitnord %>% coef() 

## # A tibble: 39 × 7
##    Country .model         term         estimate std.error statistic   p.value
##    <fct>   <chr>          <chr>           <dbl>     <dbl>     <dbl>     <dbl>
##  1 Denmark trend_model    (Intercept) -5.65e+10   8.75e+9     -6.46  2.70e- 8
##  2 Denmark trend_model    trend()      6.63e+ 9   2.58e+8     25.7   1.14e-32
##  3 Denmark trend_model_ln (Intercept)  2.30e+ 1   8.55e-2    269.    7.68e-89
##  4 Denmark trend_model_ln trend()      7.12e- 2   2.52e-3     28.3   7.68e-35
##  5 Denmark ets            alpha        1.00e+ 0  NA           NA    NA       
##  6 Denmark ets            beta         3.67e- 1  NA           NA    NA       
##  7 Denmark ets            l[0]         4.92e+ 9  NA           NA    NA       
##  8 Denmark ets            b[0]         1.24e+ 9  NA           NA    NA       
##  9 Denmark arima          ar1         -3.90e- 1   2.06e-1     -1.89  6.36e- 2
## 10 Denmark arima          ma1          7.24e- 1   1.43e-1      5.05  4.84e- 6
## # … with 29 more rows
…
