Chapter 13 Exploratory analysis of time series data: Examples | Time Series and Forecasting
…
# Close connection -- this is good practice
dbDisconnect(db)
dbUnloadDriver(db_driver)

13.1.2 Briefly characterize the dataset

library(arrow)
esales <- read_feather("data/esales.feather")

print(esales)    # print the data as a table

## # A tibble: 233 x 4
##     value date        year month
##     <dbl> <date>     <int> <int>
##  1  8282. 2020-05-01  2020     5
##  2  7839. 2020-04-01  2020     4
##  3  8889. 2020-03-01  2020     3
##  4  9368. 2020-02-01  2020     2
##  5  9209. 2020-01-01  2020     1
##  6 10038. 2019-12-01  2019    12
##  7  9291. 2019-11-01  2019    11
##  8  8757. 2019-10-01  2019    10
##  9  9874. 2019-09-01  2019     9
## 10 10912. 2019-08-01  2019     8
## # … with 223 more rows
…
# We don't have to keep the 'year' and 'month' column: can recover them if needed

esales %>%
  dplyr::select(date, sales_GWh = value) -> esales_tbl

print(esales_tbl)

## # A tibble: 233 x 2
##    date       sales_GWh
##    <date>         <dbl>
##  1 2020-05-01     8282.
##  2 2020-04-01     7839.
##  3 2020-03-01     8889.
##  4 2020-02-01     9368.
##  5 2020-01-01     9209.
##  6 2019-12-01    10038.
##  7 2019-11-01     9291.
##  8 2019-10-01     8757.
##  9 2019-09-01     9874.
## 10 2019-08-01    10912.
## # … with 223 more rows

13.1.4 Convert the data frame into a time series tsibble object

# install.packages("tsibble")
library(tsibble) # Reference: https://tsibble.tidyverts.org/articles/intro-tsibble.html

esales_tbl %>% as_tsibble(index = date) -> elsales_tbl_ts

print(elsales_tbl_ts)

## # A tsibble: 233 x 2 [1D]
##    date       sales_GWh
##    <date>         <dbl>
##  1 2001-01-01     9576.
##  2 2001-02-01     7820.
##  3 2001-03-01     8070.
##  4 2001-04-01     7153.
##  5 2001-05-01     7224.
##  6 2001-06-01     8264.
##  7 2001-07-01     8896.
##  8 2001-08-01     9404.
##  9 2001-09-01     7753.
## 10 2001-10-01     7272.
## # … with 223 more rows
…
# This plot won't work. Why not?
elsales_tbl_ts %>%
  feasts::gg_season(sales_GWh, labels = "both") + ylab("Virginia electricity sales (GWh)")

# install.packages("feasts"), Reference: https://feasts.tidyverts.org/
library(feasts)

elsales_tbl_ts %>%
  mutate(Month = tsibble::yearmonth(date)) %>%
  as_tsibble(index = Month) %>%
  dplyr::select(Month,sales_GWh) -> vaelsales_tbl_ts

print(vaelsales_tbl_ts)

## # A tsibble: 233 x 2 [1M]
##       Month sales_GWh
##       <mth>     <dbl>
##  1 2001 Jan     9576.
##  2 2001 Feb     7820.
##  3 2001 Mar     8070.
##  4 2001 Apr     7153.
##  5 2001 May     7224.
##  6 2001 Jun     8264.
##  7 2001 Jul     8896.
##  8 2001 Aug     9404.
##  9 2001 Sep     7753.
## 10 2001 Oct     7272.
## # … with 223 more rows
…
13.1.6 Scatterplots

Investigating relationships between two variables. Scatterplots. Correlation. Scatterplot matrices.

Readings: FPP Sect. 2.6

vic_elec

## # A tsibble: 52,608 x 5 [30m] <Australia/Melbourne>
##    Time                Demand Temperature Date       Holiday
##    <dttm>               <dbl>       <dbl> <date>     <lgl>  
##  1 2012-01-01 00:00:00  4383.        21.4 2012-01-01 TRUE   
##  2 2012-01-01 00:30:00  4263.        21.0 2012-01-01 TRUE   
##  3 2012-01-01 01:00:00  4049.        20.7 2012-01-01 TRUE   
##  4 2012-01-01 01:30:00  3878.        20.6 2012-01-01 TRUE   
##  5 2012-01-01 02:00:00  4036.        20.4 2012-01-01 TRUE   
##  6 2012-01-01 02:30:00  3866.        20.2 2012-01-01 TRUE   
##  7 2012-01-01 03:00:00  3694.        20.1 2012-01-01 TRUE   
##  8 2012-01-01 03:30:00  3562.        19.6 2012-01-01 TRUE   
##  9 2012-01-01 04:00:00  3433.        19.1 2012-01-01 TRUE   
## 10 2012-01-01 04:30:00  3359.        19.0 2012-01-01 TRUE   
## # … with 52,598 more rows
…
A Scatterplot matrix

vic_elec

## # A tsibble: 52,608 x 5 [30m] <Australia/Melbourne>
##    Time                Demand Temperature Date       Holiday
##    <dttm>               <dbl>       <dbl> <date>     <lgl>  
##  1 2012-01-01 00:00:00  4383.        21.4 2012-01-01 TRUE   
##  2 2012-01-01 00:30:00  4263.        21.0 2012-01-01 TRUE   
##  3 2012-01-01 01:00:00  4049.        20.7 2012-01-01 TRUE   
##  4 2012-01-01 01:30:00  3878.        20.6 2012-01-01 TRUE   
##  5 2012-01-01 02:00:00  4036.        20.4 2012-01-01 TRUE   
##  6 2012-01-01 02:30:00  3866.        20.2 2012-01-01 TRUE   
##  7 2012-01-01 03:00:00  3694.        20.1 2012-01-01 TRUE   
##  8 2012-01-01 03:30:00  3562.        19.6 2012-01-01 TRUE   
##  9 2012-01-01 04:00:00  3433.        19.1 2012-01-01 TRUE   
## 10 2012-01-01 04:30:00  3359.        19.0 2012-01-01 TRUE   
## # … with 52,598 more rows
…
13.2 Example: Australian production

# install.packages('tsibbledata')
library(tsibbledata)

aus_production

## # A tsibble: 218 x 7 [1Q]
##    Quarter  Beer Tobacco Bricks Cement Electricity   Gas
##      <qtr> <dbl>   <dbl>  <dbl>  <dbl>       <dbl> <dbl>
##  1 1956 Q1   284    5225    189    465        3923     5
##  2 1956 Q2   213    5178    204    532        4436     6
##  3 1956 Q3   227    5297    208    561        4806     7
##  4 1956 Q4   308    5681    197    570        4418     6
##  5 1957 Q1   262    5577    187    529        4339     5
##  6 1957 Q2   228    5651    214    604        4811     7
##  7 1957 Q3   236    5317    227    603        5259     7
##  8 1957 Q4   320    6152    222    582        4735     6
##  9 1958 Q1   272    5758    199    554        4608     5
## 10 1958 Q2   233    5641    229    620        5196     7
## # … with 208 more rows
…
13.3 Example: Gross Domestic Product data

13.3.1 Exploratory data analysis

library(tsibbledata) # Data sets package

print(global_economy)

## # A tsibble: 15,150 x 9 [1Y]
## # Key:       Country [263]
##    Country     Code   Year         GDP Growth   CPI Imports Exports Population
##    <fct>       <fct> <dbl>       <dbl>  <dbl> <dbl>   <dbl>   <dbl>      <dbl>
##  1 Afghanistan AFG    1960  537777811.     NA    NA    7.02    4.13    8996351
##  2 Afghanistan AFG    1961  548888896.     NA    NA    8.10    4.45    9166764
##  3 Afghanistan AFG    1962  546666678.     NA    NA    9.35    4.88    9345868
##  4 Afghanistan AFG    1963  751111191.     NA    NA   16.9     9.17    9533954
##  5 Afghanistan AFG    1964  800000044.     NA    NA   18.1     8.89    9731361
##  6 Afghanistan AFG    1965 1006666638.     NA    NA   21.4    11.3     9938414
##  7 Afghanistan AFG    1966 1399999967.     NA    NA   18.6     8.57   10152331
##  8 Afghanistan AFG    1967 1673333418.     NA    NA   14.2     6.77   10372630
##  9 Afghanistan AFG    1968 1373333367.     NA    NA   15.2     8.90   10604346
## 10 Afghanistan AFG    1969 1408888922.     NA    NA   15.0    10.1    10854428
## # … with 15,140 more rows

global_economy %>% filter(Country=="Sweden") %>% print()

## # A tsibble: 58 x 9 [1Y]
## # Key:       Country [1]
##    Country Code   Year          GDP Growth   CPI Imports Exports Population
##    <fct>   <fct> <dbl>        <dbl>  <dbl> <dbl>   <dbl>   <dbl>      <dbl>
##  1 Sweden  SWE    1960 14842870293.  NA     9.21    23.4    23.0    7484656
##  2 Sweden  SWE    1961 16147160123.   5.68  9.41    21.7    22.3    7519998
##  3 Sweden  SWE    1962 17511477311.   4.26  9.86    21.4    21.9    7561588
##  4 Sweden  SWE    1963 18954132366.   5.33 10.1     21.5    21.9    7604328
##  5 Sweden  SWE    1964 21137242561.   6.82 10.5     21.9    22.3    7661354
##  6 Sweden  SWE    1965 23260320646.   3.82 11.0     22.5    21.9    7733853
##  7 Sweden  SWE    1966 25302033132.   2.09 11.7     21.9    21.4    7807797
##  8 Sweden  SWE    1967 27463409202.   3.37 12.2     21.0    21.1    7867931
##  9 Sweden  SWE    1968 29143383491.   3.64 12.5     21.6    21.6    7912273
## 10 Sweden  SWE    1969 31649203886.   5.01 12.8     23.0    22.8    7968072
## # … with 48 more rows
…
13.3.2 Fitting data to simple models

global_economy %>% model(trend_model = TSLM(GDP ~ trend())) -> fit

fit

## # A mable: 263 x 2
## # Key:     Country [263]
##    Country             trend_model
##    <fct>                   <model>
##  1 Afghanistan              <TSLM>
##  2 Albania                  <TSLM>
##  3 Algeria                  <TSLM>
##  4 American Samoa           <TSLM>
##  5 Andorra                  <TSLM>
##  6 Angola                   <TSLM>
##  7 Antigua and Barbuda      <TSLM>
##  8 Arab World               <TSLM>
##  9 Argentina                <TSLM>
## 10 Armenia                  <TSLM>
## # … with 253 more rows

fit %>% filter(Country == "Sweden") %>% residuals()

## # A tsibble: 58 x 4 [1Y]
## # Key:       Country, .model [1]
##    Country .model       Year       .resid
##    <fct>   <chr>       <dbl>        <dbl>
##  1 Sweden  trend_model  1960 79973991821.
##  2 Sweden  trend_model  1961 71110300270.
##  3 Sweden  trend_model  1962 62306636078.
##  4 Sweden  trend_model  1963 53581309752.
##  5 Sweden  trend_model  1964 45596438566.
##  6 Sweden  trend_model  1965 37551535271.
##  7 Sweden  trend_model  1966 29425266377.
##  8 Sweden  trend_model  1967 21418661066.
##  9 Sweden  trend_model  1968 12930653974.
## 10 Sweden  trend_model  1969  5268492989.
## # … with 48 more rows
…
13.4 Producing forecasts

fit %>% forecast(h = "3 years") -> fcast3yrs

fcast3yrs

## # A fable: 789 x 5 [1Y]
## # Key:     Country, .model [263]
##    Country        .model       Year                 GDP         .mean
##    <fct>          <chr>       <dbl>              <dist>         <dbl>
##  1 Afghanistan    trend_model  2018 N(1.6e+10, 1.3e+19)  16205101654.
##  2 Afghanistan    trend_model  2019 N(1.7e+10, 1.3e+19)  16511878141.
##  3 Afghanistan    trend_model  2020 N(1.7e+10, 1.3e+19)  16818654627.
##  4 Albania        trend_model  2018 N(1.4e+10, 3.9e+18)  13733734164.
##  5 Albania        trend_model  2019 N(1.4e+10, 3.9e+18)  14166852711.
##  6 Albania        trend_model  2020 N(1.5e+10, 3.9e+18)  14599971258.
##  7 Algeria        trend_model  2018 N(1.6e+11, 9.4e+20) 157895153441.
##  8 Algeria        trend_model  2019 N(1.6e+11, 9.4e+20) 161100952126.
##  9 Algeria        trend_model  2020 N(1.6e+11, 9.4e+20) 164306750811.
## 10 American Samoa trend_model  2018 N(6.8e+08, 1.7e+15)    682475000 
## # … with 779 more rows
…
13.4.1 Model residuals vs. forecast errors

Model residuals:

Your data: \(y_1, y_2, \ldots, y_T\)

Fitted values: \(\hat{y}_1, \hat{y}_2, \ldots, \hat{y}_T\)

Model residuals: \(e_t = y_t - \hat{y}_t\)

Forecast errors:

augment(fit)

## # A tsibble: 15,150 x 7 [1Y]
## # Key:       Country, .model [263]
##    Country     .model       Year         GDP      .fitted      .resid     .innov
##    <fct>       <chr>       <dbl>       <dbl>        <dbl>       <dbl>      <dbl>
##  1 Afghanistan trend_model  1960  537777811. -1587934559. 2125712370.     2.13e9
##  2 Afghanistan trend_model  1961  548888896. -1281158073. 1830046968.     1.83e9
##  3 Afghanistan trend_model  1962  546666678.  -974381586. 1521048264.     1.52e9
##  4 Afghanistan trend_model  1963  751111191.  -667605100. 1418716291.     1.42e9
##  5 Afghanistan trend_model  1964  800000044.  -360828613. 1160828658.     1.16e9
##  6 Afghanistan trend_model  1965 1006666638.   -54052127. 1060718765.     1.06e9
##  7 Afghanistan trend_model  1966 1399999967.   252724359. 1147275607.     1.15e9
##  8 Afghanistan trend_model  1967 1673333418.   559500846. 1113832572.     1.11e9
##  9 Afghanistan trend_model  1968 1373333367.   866277332.  507056034.     5.07e8
## 10 Afghanistan trend_model  1969 1408888922.  1173053819.  235835103.     2.36e8
## # … with 15,140 more rows
…
13.5 Example: GDP, several countries

library(tsibbledata) # Data sets package

nordic <- c("Sweden", "Denmark", "Norway", "Finland")

(global_economy %>% filter(Country %in% nordic) -> nordic_economy)

## # A tsibble: 232 x 9 [1Y]
## # Key:       Country [4]
##    Country Code   Year          GDP Growth   CPI Imports Exports Population
##    <fct>   <fct> <dbl>        <dbl>  <dbl> <dbl>   <dbl>   <dbl>      <dbl>
##  1 Denmark DNK    1960  6248946880. NA      8.25    34.3    32.3    4579603
##  2 Denmark DNK    1961  6933842099.  6.38   8.53    32.3    30.0    4611687
##  3 Denmark DNK    1962  7812968114.  5.67   9.16    32.5    28.6    4647727
##  4 Denmark DNK    1963  8316692386.  0.637  9.72    30.8    30.4    4684483
##  5 Denmark DNK    1964  9506678763.  9.27  10.0     32.6    29.9    4722072
##  6 Denmark DNK    1965 10678897387.  4.56  10.6     31.5    29.3    4759012
##  7 Denmark DNK    1966 11721248101.  2.74  11.3     30.8    28.6    4797381
##  8 Denmark DNK    1967 12788479692.  3.42  12.2     30.0    27.3    4835354
##  9 Denmark DNK    1968 13196541952   3.97  13.2     29.7    27.7    4864883
## 10 Denmark DNK    1969 15009384585.  6.32  13.7     30.4    27.6    4891860
## # … with 222 more rows
…
Finland: MA(2)

Norway: MA(1)

Sweden: MA(2)

nordic_economy %>%
  model(arima_constrained = ARIMA(GDP ~ pdq(1,0,2))) %>% dplyr::select(arima_constrained) %>% coef()

## # A tibble: 0 x 4
## # … with 4 variables: Country <fct>, .model <chr>, term <chr>, estimate <dbl>

fitnord %>% coef()

## # A tibble: 39 x 7
##    Country .model         term         estimate std.error statistic   p.value
##    <fct>   <chr>          <chr>           <dbl>     <dbl>     <dbl>     <dbl>
##  1 Denmark trend_model    (Intercept) -5.65e+10   8.75e+9     -6.46  2.70e- 8
##  2 Denmark trend_model    trend()      6.63e+ 9   2.58e+8     25.7   1.14e-32
##  3 Denmark trend_model_ln (Intercept)  2.30e+ 1   8.55e-2    269.    7.68e-89
##  4 Denmark trend_model_ln trend()      7.12e- 2   2.52e-3     28.3   7.68e-35
##  5 Denmark ets            alpha        1.00e+ 0  NA           NA    NA       
##  6 Denmark ets            beta         3.67e- 1  NA           NA    NA       
##  7 Denmark ets            l            4.92e+ 9  NA           NA    NA       
##  8 Denmark ets            b            1.24e+ 9  NA           NA    NA       
##  9 Denmark arima          ar1         -3.90e- 1   2.06e-1     -1.89  6.36e- 2
## 10 Denmark arima          ma1          7.24e- 1   1.43e-1      5.05  4.84e- 6
## # … with 29 more rows
…
