Chapter 15 Exploratory analysis of time series data | Time Series and Forecasting: A Project-based Approach with R
…
15.2 Briefly characterize the dataset

Provide a brief example of the data, showing how they are structured.

Example: Monthly electricity sales for Virginia

Previously we extracted monthly electricity sales data for Virginia from a remote database, converted the data frame into a tibble object, and saved the result to a file in feather format.

library(arrow)
esales <- read_feather("data/esales.feather")

print(esales)    # print the data as a table

## # A tibble: 233 × 4
##     value date        year month
##     <dbl> <date>     <int> <int>
##  1  8282. 2020-05-01  2020     5
##  2  7839. 2020-04-01  2020     4
##  3  8889. 2020-03-01  2020     3
##  4  9368. 2020-02-01  2020     2
##  5  9209. 2020-01-01  2020     1
##  6 10038. 2019-12-01  2019    12
##  7  9291. 2019-11-01  2019    11
##  8  8757. 2019-10-01  2019    10
##  9  9874. 2019-09-01  2019     9
## 10 10912. 2019-08-01  2019     8
## # … with 223 more rows
…
# We don't have to keep the 'year' and 'month' column: can recover them if needed

esales %>%
  dplyr::select(date, sales_GWh = value) -> esales_tbl

print(esales_tbl)

## # A tibble: 233 × 2
##    date       sales_GWh
##    <date>         <dbl>
##  1 2020-05-01     8282.
##  2 2020-04-01     7839.
##  3 2020-03-01     8889.
##  4 2020-02-01     9368.
##  5 2020-01-01     9209.
##  6 2019-12-01    10038.
##  7 2019-11-01     9291.
##  8 2019-10-01     8757.
##  9 2019-09-01     9874.
## 10 2019-08-01    10912.
## # … with 223 more rows
…
Ref: FPP3, Sections 2.3, 2.4

15.4.1 Example: Virginia monthly electricity

Recall how we readied these data:

esales <- arrow::read_feather("data/esales.feather")
esales %>%
  dplyr::select(date, sales_GWh = value) -> esales_tbl

esales_tbl %>% as_tsibble(index = date) -> elsales_tbl_ts

print(elsales_tbl_ts)

## # A tsibble: 233 x 2 [1D]
##    date       sales_GWh
##    <date>         <dbl>
##  1 2001-01-01     9576.
##  2 2001-02-01     7820.
##  3 2001-03-01     8070.
##  4 2001-04-01     7153.
##  5 2001-05-01     7224.
##  6 2001-06-01     8264.
##  7 2001-07-01     8896.
##  8 2001-08-01     9404.
##  9 2001-09-01     7753.
## 10 2001-10-01     7272.
## # … with 223 more rows
### This plot won't work. Why not?
# elsales_tbl_ts %>%
#   feasts::gg_season(sales_GWh, labels = "both") + ylab("Virginia electricity sales (GWh)")

# install.packages("feasts"), Reference: https://feasts.tidyverts.org/
library(feasts)

elsales_tbl_ts %>%
  mutate(Month = tsibble::yearmonth(date)) %>%
  as_tsibble(index = Month) %>%
  dplyr::select(Month,sales_GWh) -> vaelsales_tbl_ts

print(vaelsales_tbl_ts)

## # A tsibble: 233 x 2 [1M]
##       Month sales_GWh
##       <mth>     <dbl>
##  1 2001 Jan     9576.
##  2 2001 Feb     7820.
##  3 2001 Mar     8070.
##  4 2001 Apr     7153.
##  5 2001 May     7224.
##  6 2001 Jun     8264.
##  7 2001 Jul     8896.
##  8 2001 Aug     9404.
##  9 2001 Sep     7753.
## 10 2001 Oct     7272.
## # … with 223 more rows
…
15.4.2 Example: Australian production

# install.packages('tsibbledata')
library(tsibbledata)

aus_production

## # A tsibble: 218 x 7 [1Q]
##    Quarter  Beer Tobacco Bricks Cement Electricity   Gas
##      <qtr> <dbl>   <dbl>  <dbl>  <dbl>       <dbl> <dbl>
##  1 1956 Q1   284    5225    189    465        3923     5
##  2 1956 Q2   213    5178    204    532        4436     6
##  3 1956 Q3   227    5297    208    561        4806     7
##  4 1956 Q4   308    5681    197    570        4418     6
##  5 1957 Q1   262    5577    187    529        4339     5
##  6 1957 Q2   228    5651    214    604        4811     7
##  7 1957 Q3   236    5317    227    603        5259     7
##  8 1957 Q4   320    6152    222    582        4735     6
##  9 1958 Q1   272    5758    199    554        4608     5
## 10 1958 Q2   233    5641    229    620        5196     7
## # … with 208 more rows
…
15.5 Scatterplots

Readings: FPP Sect. 2.6

Investigating relationships between two variables. Scatterplots. Correlation. Scatterplot matrices.

vic_elec

## # A tsibble: 52,608 x 5 [30m] <Australia/Melbourne>
##    Time                Demand Temperature Date       Holiday
##    <dttm>               <dbl>       <dbl> <date>     <lgl>  
##  1 2012-01-01 00:00:00  4383.        21.4 2012-01-01 TRUE   
##  2 2012-01-01 00:30:00  4263.        21.0 2012-01-01 TRUE   
##  3 2012-01-01 01:00:00  4049.        20.7 2012-01-01 TRUE   
##  4 2012-01-01 01:30:00  3878.        20.6 2012-01-01 TRUE   
##  5 2012-01-01 02:00:00  4036.        20.4 2012-01-01 TRUE   
##  6 2012-01-01 02:30:00  3866.        20.2 2012-01-01 TRUE   
##  7 2012-01-01 03:00:00  3694.        20.1 2012-01-01 TRUE   
##  8 2012-01-01 03:30:00  3562.        19.6 2012-01-01 TRUE   
##  9 2012-01-01 04:00:00  3433.        19.1 2012-01-01 TRUE   
## 10 2012-01-01 04:30:00  3359.        19.0 2012-01-01 TRUE   
## # … with 52,598 more rows
…
15.5.1 A Scatterplot matrix

vic_elec

## # A tsibble: 52,608 x 5 [30m] <Australia/Melbourne>
##    Time                Demand Temperature Date       Holiday
##    <dttm>               <dbl>       <dbl> <date>     <lgl>  
##  1 2012-01-01 00:00:00  4383.        21.4 2012-01-01 TRUE   
##  2 2012-01-01 00:30:00  4263.        21.0 2012-01-01 TRUE   
##  3 2012-01-01 01:00:00  4049.        20.7 2012-01-01 TRUE   
##  4 2012-01-01 01:30:00  3878.        20.6 2012-01-01 TRUE   
##  5 2012-01-01 02:00:00  4036.        20.4 2012-01-01 TRUE   
##  6 2012-01-01 02:30:00  3866.        20.2 2012-01-01 TRUE   
##  7 2012-01-01 03:00:00  3694.        20.1 2012-01-01 TRUE   
##  8 2012-01-01 03:30:00  3562.        19.6 2012-01-01 TRUE   
##  9 2012-01-01 04:00:00  3433.        19.1 2012-01-01 TRUE   
## 10 2012-01-01 04:30:00  3359.        19.0 2012-01-01 TRUE   
## # … with 52,598 more rows
…
