Chapter 16 Time series decomposition | Time Series and Forecasting: A Project-based Approach with R
…
            Time Series and Forecasting:
A Project-based Approach with R

Chapter 16 Time series decomposition

Readings: FPP3, Sections 3.1, 3.2

16.0.1 Example: Gross Domestic Product data

library(tsibbledata) # Data sets package

print(global_economy)

## # A tsibble: 15,150 x 9 [1Y]
## # Key:       Country [263]
##    Country     Code   Year         GDP Growth   CPI Imports Exports Population
##    <fct>       <fct> <dbl>       <dbl>  <dbl> <dbl>   <dbl>   <dbl>      <dbl>
##  1 Afghanistan AFG    1960  537777811.     NA    NA    7.02    4.13    8996351
##  2 Afghanistan AFG    1961  548888896.     NA    NA    8.10    4.45    9166764
##  3 Afghanistan AFG    1962  546666678.     NA    NA    9.35    4.88    9345868
##  4 Afghanistan AFG    1963  751111191.     NA    NA   16.9     9.17    9533954
##  5 Afghanistan AFG    1964  800000044.     NA    NA   18.1     8.89    9731361
##  6 Afghanistan AFG    1965 1006666638.     NA    NA   21.4    11.3     9938414
##  7 Afghanistan AFG    1966 1399999967.     NA    NA   18.6     8.57   10152331
##  8 Afghanistan AFG    1967 1673333418.     NA    NA   14.2     6.77   10372630
##  9 Afghanistan AFG    1968 1373333367.     NA    NA   15.2     8.90   10604346
## 10 Afghanistan AFG    1969 1408888922.     NA    NA   15.0    10.1    10854428
## # … with 15,140 more rows

global_economy %>% filter(Country=="Sweden") %>% print()

## # A tsibble: 58 x 9 [1Y]
## # Key:       Country [1]
##    Country Code   Year          GDP Growth   CPI Imports Exports Population
##    <fct>   <fct> <dbl>        <dbl>  <dbl> <dbl>   <dbl>   <dbl>      <dbl>
##  1 Sweden  SWE    1960 14842870293.  NA     9.21    23.4    23.0    7484656
##  2 Sweden  SWE    1961 16147160123.   5.68  9.41    21.7    22.3    7519998
##  3 Sweden  SWE    1962 17511477311.   4.26  9.86    21.4    21.9    7561588
##  4 Sweden  SWE    1963 18954132366.   5.33 10.1     21.5    21.9    7604328
##  5 Sweden  SWE    1964 21137242561.   6.82 10.5     21.9    22.3    7661354
##  6 Sweden  SWE    1965 23260320646.   3.82 11.0     22.5    21.9    7733853
##  7 Sweden  SWE    1966 25302033132.   2.09 11.7     21.9    21.4    7807797
##  8 Sweden  SWE    1967 27463409202.   3.37 12.2     21.0    21.1    7867931
##  9 Sweden  SWE    1968 29143383491.   3.64 12.5     21.6    21.6    7912273
## 10 Sweden  SWE    1969 31649203886.   5.01 12.8     23.0    22.8    7968072
## # … with 48 more rows
…
16.0.2 Fitting data to simple models

global_economy %>% model(trend_model = TSLM(GDP ~ trend())) -> fit

fit

## # A mable: 263 x 2
## # Key:     Country [263]
##    Country             trend_model
##    <fct>                   <model>
##  1 Afghanistan              <TSLM>
##  2 Albania                  <TSLM>
##  3 Algeria                  <TSLM>
##  4 American Samoa           <TSLM>
##  5 Andorra                  <TSLM>
##  6 Angola                   <TSLM>
##  7 Antigua and Barbuda      <TSLM>
##  8 Arab World               <TSLM>
##  9 Argentina                <TSLM>
## 10 Armenia                  <TSLM>
## # … with 253 more rows

fit %>% filter(Country == "Sweden") %>% residuals()

## # A tsibble: 58 x 4 [1Y]
## # Key:       Country, .model [1]
##    Country .model       Year       .resid
##    <fct>   <chr>       <dbl>        <dbl>
##  1 Sweden  trend_model  1960 79973991821.
##  2 Sweden  trend_model  1961 71110300270.
##  3 Sweden  trend_model  1962 62306636078.
##  4 Sweden  trend_model  1963 53581309752.
##  5 Sweden  trend_model  1964 45596438566.
##  6 Sweden  trend_model  1965 37551535271.
##  7 Sweden  trend_model  1966 29425266377.
##  8 Sweden  trend_model  1967 21418661066.
##  9 Sweden  trend_model  1968 12930653974.
## 10 Sweden  trend_model  1969  5268492989.
## # … with 48 more rows
…
16.1 Producing forecasts

fit %>% forecast(h = "3 years") -> fcast3yrs

fcast3yrs

## # A fable: 789 x 5 [1Y]
## # Key:     Country, .model [263]
##    Country        .model       Year                 GDP         .mean
##    <fct>          <chr>       <dbl>              <dist>         <dbl>
##  1 Afghanistan    trend_model  2018 N(1.6e+10, 1.3e+19)  16205101654.
##  2 Afghanistan    trend_model  2019 N(1.7e+10, 1.3e+19)  16511878141.
##  3 Afghanistan    trend_model  2020 N(1.7e+10, 1.3e+19)  16818654627.
##  4 Albania        trend_model  2018 N(1.4e+10, 3.9e+18)  13733734164.
##  5 Albania        trend_model  2019 N(1.4e+10, 3.9e+18)  14166852711.
##  6 Albania        trend_model  2020 N(1.5e+10, 3.9e+18)  14599971258.
##  7 Algeria        trend_model  2018 N(1.6e+11, 9.4e+20) 157895153441.
##  8 Algeria        trend_model  2019 N(1.6e+11, 9.4e+20) 161100952126.
##  9 Algeria        trend_model  2020 N(1.6e+11, 9.4e+20) 164306750811.
## 10 American Samoa trend_model  2018 N(6.8e+08, 1.7e+15)    682475000 
## # … with 779 more rows
…
16.1.1 Model residuals vs. forecast errors

Model residuals:

Your data: \(y_1, y_2, \ldots, y_T\)

Fitted values: \(\hat{y}_1, \hat{y}_2, \ldots, \hat{y}_T\)

Model residuals: \(e_t = y_t - \hat{y}_t\)

Forecast errors:

augment(fit)

## # A tsibble: 15,150 x 7 [1Y]
## # Key:       Country, .model [263]
##    Country     .model       Year         GDP      .fitted      .resid     .innov
##    <fct>       <chr>       <dbl>       <dbl>        <dbl>       <dbl>      <dbl>
##  1 Afghanistan trend_model  1960  537777811. -1587934559. 2125712370.     2.13e9
##  2 Afghanistan trend_model  1961  548888896. -1281158073. 1830046968.     1.83e9
##  3 Afghanistan trend_model  1962  546666678.  -974381586. 1521048264.     1.52e9
##  4 Afghanistan trend_model  1963  751111191.  -667605100. 1418716291.     1.42e9
##  5 Afghanistan trend_model  1964  800000044.  -360828613. 1160828658.     1.16e9
##  6 Afghanistan trend_model  1965 1006666638.   -54052127. 1060718765.     1.06e9
##  7 Afghanistan trend_model  1966 1399999967.   252724359. 1147275607.     1.15e9
##  8 Afghanistan trend_model  1967 1673333418.   559500846. 1113832572.     1.11e9
##  9 Afghanistan trend_model  1968 1373333367.   866277332.  507056034.     5.07e8
## 10 Afghanistan trend_model  1969 1408888922.  1173053819.  235835103.     2.36e8
## # … with 15,140 more rows
…
16.2 Example: GDP, several countries

library(tsibbledata) # Data sets package

nordic <- c("Sweden", "Denmark", "Norway", "Finland")

(global_economy %>% filter(Country %in% nordic) -> nordic_economy)

## # A tsibble: 232 x 9 [1Y]
## # Key:       Country [4]
##    Country Code   Year          GDP Growth   CPI Imports Exports Population
##    <fct>   <fct> <dbl>        <dbl>  <dbl> <dbl>   <dbl>   <dbl>      <dbl>
##  1 Denmark DNK    1960  6248946880. NA      8.25    34.3    32.3    4579603
##  2 Denmark DNK    1961  6933842099.  6.38   8.53    32.3    30.0    4611687
##  3 Denmark DNK    1962  7812968114.  5.67   9.16    32.5    28.6    4647727
##  4 Denmark DNK    1963  8316692386.  0.637  9.72    30.8    30.4    4684483
##  5 Denmark DNK    1964  9506678763.  9.27  10.0     32.6    29.9    4722072
##  6 Denmark DNK    1965 10678897387.  4.56  10.6     31.5    29.3    4759012
##  7 Denmark DNK    1966 11721248101.  2.74  11.3     30.8    28.6    4797381
##  8 Denmark DNK    1967 12788479692.  3.42  12.2     30.0    27.3    4835354
##  9 Denmark DNK    1968 13196541952   3.97  13.2     29.7    27.7    4864883
## 10 Denmark DNK    1969 15009384585.  6.32  13.7     30.4    27.6    4891860
## # … with 222 more rows
…
Finland: MA(2)

Norway: MA(1)

Sweden: MA(2)

nordic_economy %>%
  model(arima_constrained = ARIMA(GDP ~ pdq(1,0,2))) %>% dplyr::select(arima_constrained) %>% coef()

## # A tibble: 0 × 4
## # … with 4 variables: Country <fct>, .model <chr>, term <chr>, estimate <dbl>

fitnord %>% coef()

## # A tibble: 39 × 7
##    Country .model         term         estimate std.error statistic   p.value
##    <fct>   <chr>          <chr>           <dbl>     <dbl>     <dbl>     <dbl>
##  1 Denmark trend_model    (Intercept) -5.65e+10   8.75e+9     -6.46  2.70e- 8
##  2 Denmark trend_model    trend()      6.63e+ 9   2.58e+8     25.7   1.14e-32
##  3 Denmark trend_model_ln (Intercept)  2.30e+ 1   8.55e-2    269.    7.68e-89
##  4 Denmark trend_model_ln trend()      7.12e- 2   2.52e-3     28.3   7.68e-35
##  5 Denmark ets            alpha        1.00e+ 0  NA           NA    NA       
##  6 Denmark ets            beta         3.67e- 1  NA           NA    NA       
##  7 Denmark ets            l[0]         4.92e+ 9  NA           NA    NA       
##  8 Denmark ets            b[0]         1.24e+ 9  NA           NA    NA       
##  9 Denmark arima          ar1         -3.90e- 1   2.06e-1     -1.89  6.36e- 2
## 10 Denmark arima          ma1          7.24e- 1   1.43e-1      5.05  4.84e- 6
## # … with 29 more rows
…
